alu/alu.vcd
$date
	Sun Jul 12 14:57:08 2020
$end
$version
	Icarus Verilog
$end
$timescale
	1s
$end
$scope module ALU_tb $end
$var wire 32 ! result [31:0] $end
$var wire 1 " flag $end
$var reg 32 # a [31:0] $end
$var reg 4 $ aluop [3:0] $end
$var reg 32 % b [31:0] $end
$var reg 1 & clk $end
$var reg 32 ' errors [31:0] $end
$var reg 1 ( flag_expected $end
$var reg 32 ) result_expected [31:0] $end
$var reg 32 * vectornum [31:0] $end
$scope module DUT_alu $end
$var wire 4 + ALUop [3:0] $end
$var wire 32 , a [31:0] $end
$var wire 32 - b [31:0] $end
$var wire 32 . result_comparison [31:0] $end
$var wire 32 / result_logic [31:0] $end
$var wire 32 0 result_arithmetic_logic [31:0] $end
$var wire 32 1 result_arithmetic [31:0] $end
$var wire 32 2 result [31:0] $end
$var reg 1 " flag $end
$scope module Arithmetic_part_ $end
$var wire 4 3 ALUop [3:0] $end
$var wire 32 4 a [31:0] $end
$var wire 32 5 b [31:0] $end
$var wire 32 6 wire_sum [31:0] $end
$var wire 32 7 wire_sub [31:0] $end
$var wire 1 8 op_sign $end
$var reg 32 9 result [31:0] $end
$scope module sub $end
$var wire 32 : a [31:0] $end
$var wire 32 ; b [31:0] $end
$var wire 1 8 f_cin $end
$var wire 32 < result [31:0] $end
$var wire 32 = carry [31:0] $end
$scope module add0 $end
$var wire 1 > a $end
$var wire 1 ? b $end
$var wire 1 8 cin $end
$var wire 1 @ cout $end
$var wire 1 A sum $end
$upscope $end
$scope module add1 $end
$var wire 1 B a $end
$var wire 1 C b $end
$var wire 1 D cin $end
$var wire 1 E cout $end
$var wire 1 F sum $end
$upscope $end
$scope module add10 $end
$var wire 1 G a $end
$var wire 1 H b $end
$var wire 1 I cin $end
$var wire 1 J cout $end
$var wire 1 K sum $end
$upscope $end
$scope module add11 $end
$var wire 1 L a $end
$var wire 1 M b $end
$var wire 1 N cin $end
$var wire 1 O cout $end
$var wire 1 P sum $end
$upscope $end
$scope module add12 $end
$var wire 1 Q a $end
$var wire 1 R b $end
$var wire 1 S cin $end
$var wire 1 T cout $end
$var wire 1 U sum $end
$upscope $end
$scope module add13 $end
$var wire 1 V a $end
$var wire 1 W b $end
$var wire 1 X cin $end
$var wire 1 Y cout $end
$var wire 1 Z sum $end
$upscope $end
$scope module add14 $end
$var wire 1 [ a $end
$var wire 1 \ b $end
$var wire 1 ] cin $end
$var wire 1 ^ cout $end
$var wire 1 _ sum $end
$upscope $end
$scope module add15 $end
$var wire 1 ` a $end
$var wire 1 a b $end
$var wire 1 b cin $end
$var wire 1 c cout $end
$var wire 1 d sum $end
$upscope $end
$scope module add16 $end
$var wire 1 e a $end
$var wire 1 f b $end
$var wire 1 g cin $end
$var wire 1 h cout $end
$var wire 1 i sum $end
$upscope $end
$scope module add17 $end
$var wire 1 j a $end
$var wire 1 k b $end
$var wire 1 l cin $end
$var wire 1 m cout $end
$var wire 1 n sum $end
$upscope $end
$scope module add18 $end
$var wire 1 o a $end
$var wire 1 p b $end
$var wire 1 q cin $end
$var wire 1 r cout $end
$var wire 1 s sum $end
$upscope $end
$scope module add19 $end
$var wire 1 t a $end
$var wire 1 u b $end
$var wire 1 v cin $end
$var wire 1 w cout $end
$var wire 1 x sum $end
$upscope $end
$scope module add2 $end
$var wire 1 y a $end
$var wire 1 z b $end
$var wire 1 { cin $end
$var wire 1 | cout $end
$var wire 1 } sum $end
$upscope $end
$scope module add20 $end
$var wire 1 ~ a $end
$var wire 1 !" b $end
$var wire 1 "" cin $end
$var wire 1 #" cout $end
$var wire 1 $" sum $end
$upscope $end
$scope module add21 $end
$var wire 1 %" a $end
$var wire 1 &" b $end
$var wire 1 '" cin $end
$var wire 1 (" cout $end
$var wire 1 )" sum $end
$upscope $end
$scope module add22 $end
$var wire 1 *" a $end
$var wire 1 +" b $end
$var wire 1 ," cin $end
$var wire 1 -" cout $end
$var wire 1 ." sum $end
$upscope $end
$scope module add23 $end
$var wire 1 /" a $end
$var wire 1 0" b $end
$var wire 1 1" cin $end
$var wire 1 2" cout $end
$var wire 1 3" sum $end
$upscope $end
$scope module add24 $end
$var wire 1 4" a $end
$var wire 1 5" b $end
$var wire 1 6" cin $end
$var wire 1 7" cout $end
$var wire 1 8" sum $end
$upscope $end
$scope module add25 $end
$var wire 1 9" a $end
$var wire 1 :" b $end
$var wire 1 ;" cin $end
$var wire 1 <" cout $end
$var wire 1 =" sum $end
$upscope $end
$scope module add26 $end
$var wire 1 >" a $end
$var wire 1 ?" b $end
$var wire 1 @" cin $end
$var wire 1 A" cout $end
$var wire 1 B" sum $end
$upscope $end
$scope module add27 $end
$var wire 1 C" a $end
$var wire 1 D" b $end
$var wire 1 E" cin $end
$var wire 1 F" cout $end
$var wire 1 G" sum $end
$upscope $end
$scope module add28 $end
$var wire 1 H" a $end
$var wire 1 I" b $end
$var wire 1 J" cin $end
$var wire 1 K" cout $end
$var wire 1 L" sum $end
$upscope $end
$scope module add29 $end
$var wire 1 M" a $end
$var wire 1 N" b $end
$var wire 1 O" cin $end
$var wire 1 P" cout $end
$var wire 1 Q" sum $end
$upscope $end
$scope module add3 $end
$var wire 1 R" a $end
$var wire 1 S" b $end
$var wire 1 T" cin $end
$var wire 1 U" cout $end
$var wire 1 V" sum $end
$upscope $end
$scope module add30 $end
$var wire 1 W" a $end
$var wire 1 X" b $end
$var wire 1 Y" cin $end
$var wire 1 Z" cout $end
$var wire 1 [" sum $end
$upscope $end
$scope module add31 $end
$var wire 1 \" a $end
$var wire 1 ]" b $end
$var wire 1 ^" cin $end
$var wire 1 _" cout $end
$var wire 1 `" sum $end
$upscope $end
$scope module add4 $end
$var wire 1 a" a $end
$var wire 1 b" b $end
$var wire 1 c" cin $end
$var wire 1 d" cout $end
$var wire 1 e" sum $end
$upscope $end
$scope module add5 $end
$var wire 1 f" a $end
$var wire 1 g" b $end
$var wire 1 h" cin $end
$var wire 1 i" cout $end
$var wire 1 j" sum $end
$upscope $end
$scope module add6 $end
$var wire 1 k" a $end
$var wire 1 l" b $end
$var wire 1 m" cin $end
$var wire 1 n" cout $end
$var wire 1 o" sum $end
$upscope $end
$scope module add7 $end
$var wire 1 p" a $end
$var wire 1 q" b $end
$var wire 1 r" cin $end
$var wire 1 s" cout $end
$var wire 1 t" sum $end
$upscope $end
$scope module add8 $end
$var wire 1 u" a $end
$var wire 1 v" b $end
$var wire 1 w" cin $end
$var wire 1 x" cout $end
$var wire 1 y" sum $end
$upscope $end
$scope module add9 $end
$var wire 1 z" a $end
$var wire 1 {" b $end
$var wire 1 |" cin $end
$var wire 1 }" cout $end
$var wire 1 ~" sum $end
$upscope $end
$upscope $end
$scope module sum $end
$var wire 32 !# a [31:0] $end
$var wire 32 "# b [31:0] $end
$var wire 1 8 f_cin $end
$var wire 32 ## result [31:0] $end
$var wire 32 $# carry [31:0] $end
$scope module add0 $end
$var wire 1 %# a $end
$var wire 1 &# b $end
$var wire 1 8 cin $end
$var wire 1 '# cout $end
$var wire 1 (# sum $end
$upscope $end
$scope module add1 $end
$var wire 1 )# a $end
$var wire 1 *# b $end
$var wire 1 +# cin $end
$var wire 1 ,# cout $end
$var wire 1 -# sum $end
$upscope $end
$scope module add10 $end
$var wire 1 .# a $end
$var wire 1 /# b $end
$var wire 1 0# cin $end
$var wire 1 1# cout $end
$var wire 1 2# sum $end
$upscope $end
$scope module add11 $end
$var wire 1 3# a $end
$var wire 1 4# b $end
$var wire 1 5# cin $end
$var wire 1 6# cout $end
$var wire 1 7# sum $end
$upscope $end
$scope module add12 $end
$var wire 1 8# a $end
$var wire 1 9# b $end
$var wire 1 :# cin $end
$var wire 1 ;# cout $end
$var wire 1 <# sum $end
$upscope $end
$scope module add13 $end
$var wire 1 =# a $end
$var wire 1 ># b $end
$var wire 1 ?# cin $end
$var wire 1 @# cout $end
$var wire 1 A# sum $end
$upscope $end
$scope module add14 $end
$var wire 1 B# a $end
$var wire 1 C# b $end
$var wire 1 D# cin $end
$var wire 1 E# cout $end
$var wire 1 F# sum $end
$upscope $end
$scope module add15 $end
$var wire 1 G# a $end
$var wire 1 H# b $end
$var wire 1 I# cin $end
$var wire 1 J# cout $end
$var wire 1 K# sum $end
$upscope $end
$scope module add16 $end
$var wire 1 L# a $end
$var wire 1 M# b $end
$var wire 1 N# cin $end
$var wire 1 O# cout $end
$var wire 1 P# sum $end
$upscope $end
$scope module add17 $end
$var wire 1 Q# a $end
$var wire 1 R# b $end
$var wire 1 S# cin $end
$var wire 1 T# cout $end
$var wire 1 U# sum $end
$upscope $end
$scope module add18 $end
$var wire 1 V# a $end
$var wire 1 W# b $end
$var wire 1 X# cin $end
$var wire 1 Y# cout $end
$var wire 1 Z# sum $end
$upscope $end
$scope module add19 $end
$var wire 1 [# a $end
$var wire 1 \# b $end
$var wire 1 ]# cin $end
$var wire 1 ^# cout $end
$var wire 1 _# sum $end
$upscope $end
$scope module add2 $end
$var wire 1 `# a $end
$var wire 1 a# b $end
$var wire 1 b# cin $end
$var wire 1 c# cout $end
$var wire 1 d# sum $end
$upscope $end
$scope module add20 $end
$var wire 1 e# a $end
$var wire 1 f# b $end
$var wire 1 g# cin $end
$var wire 1 h# cout $end
$var wire 1 i# sum $end
$upscope $end
$scope module add21 $end
$var wire 1 j# a $end
$var wire 1 k# b $end
$var wire 1 l# cin $end
$var wire 1 m# cout $end
$var wire 1 n# sum $end
$upscope $end
$scope module add22 $end
$var wire 1 o# a $end
$var wire 1 p# b $end
$var wire 1 q# cin $end
$var wire 1 r# cout $end
$var wire 1 s# sum $end
$upscope $end
$scope module add23 $end
$var wire 1 t# a $end
$var wire 1 u# b $end
$var wire 1 v# cin $end
$var wire 1 w# cout $end
$var wire 1 x# sum $end
$upscope $end
$scope module add24 $end
$var wire 1 y# a $end
$var wire 1 z# b $end
$var wire 1 {# cin $end
$var wire 1 |# cout $end
$var wire 1 }# sum $end
$upscope $end
$scope module add25 $end
$var wire 1 ~# a $end
$var wire 1 !$ b $end
$var wire 1 "$ cin $end
$var wire 1 #$ cout $end
$var wire 1 $$ sum $end
$upscope $end
$scope module add26 $end
$var wire 1 %$ a $end
$var wire 1 &$ b $end
$var wire 1 '$ cin $end
$var wire 1 ($ cout $end
$var wire 1 )$ sum $end
$upscope $end
$scope module add27 $end
$var wire 1 *$ a $end
$var wire 1 +$ b $end
$var wire 1 ,$ cin $end
$var wire 1 -$ cout $end
$var wire 1 .$ sum $end
$upscope $end
$scope module add28 $end
$var wire 1 /$ a $end
$var wire 1 0$ b $end
$var wire 1 1$ cin $end
$var wire 1 2$ cout $end
$var wire 1 3$ sum $end
$upscope $end
$scope module add29 $end
$var wire 1 4$ a $end
$var wire 1 5$ b $end
$var wire 1 6$ cin $end
$var wire 1 7$ cout $end
$var wire 1 8$ sum $end
$upscope $end
$scope module add3 $end
$var wire 1 9$ a $end
$var wire 1 :$ b $end
$var wire 1 ;$ cin $end
$var wire 1 <$ cout $end
$var wire 1 =$ sum $end
$upscope $end
$scope module add30 $end
$var wire 1 >$ a $end
$var wire 1 ?$ b $end
$var wire 1 @$ cin $end
$var wire 1 A$ cout $end
$var wire 1 B$ sum $end
$upscope $end
$scope module add31 $end
$var wire 1 C$ a $end
$var wire 1 D$ b $end
$var wire 1 E$ cin $end
$var wire 1 F$ cout $end
$var wire 1 G$ sum $end
$upscope $end
$scope module add4 $end
$var wire 1 H$ a $end
$var wire 1 I$ b $end
$var wire 1 J$ cin $end
$var wire 1 K$ cout $end
$var wire 1 L$ sum $end
$upscope $end
$scope module add5 $end
$var wire 1 M$ a $end
$var wire 1 N$ b $end
$var wire 1 O$ cin $end
$var wire 1 P$ cout $end
$var wire 1 Q$ sum $end
$upscope $end
$scope module add6 $end
$var wire 1 R$ a $end
$var wire 1 S$ b $end
$var wire 1 T$ cin $end
$var wire 1 U$ cout $end
$var wire 1 V$ sum $end
$upscope $end
$scope module add7 $end
$var wire 1 W$ a $end
$var wire 1 X$ b $end
$var wire 1 Y$ cin $end
$var wire 1 Z$ cout $end
$var wire 1 [$ sum $end
$upscope $end
$scope module add8 $end
$var wire 1 \$ a $end
$var wire 1 ]$ b $end
$var wire 1 ^$ cin $end
$var wire 1 _$ cout $end
$var wire 1 `$ sum $end
$upscope $end
$scope module add9 $end
$var wire 1 a$ a $end
$var wire 1 b$ b $end
$var wire 1 c$ cin $end
$var wire 1 d$ cout $end
$var wire 1 e$ sum $end
$upscope $end
$upscope $end
$upscope $end
$scope module Comparison_part_ $end
$var wire 32 f$ a [31:0] $end
$var wire 32 g$ b [31:0] $end
$var wire 32 h$ result [31:0] $end
$var wire 32 i$ comp [31:0] $end
$scope module sign $end
$var wire 32 j$ a [31:0] $end
$var wire 1 k$ bit_to_extend $end
$upscope $end
$scope module slt $end
$var wire 32 l$ a [31:0] $end
$var wire 32 m$ b [31:0] $end
$var wire 1 n$ f_cin $end
$var wire 32 o$ result [31:0] $end
$var wire 32 p$ carry [31:0] $end
$scope module add0 $end
$var wire 1 q$ a $end
$var wire 1 r$ b $end
$var wire 1 n$ cin $end
$var wire 1 s$ cout $end
$var wire 1 t$ sum $end
$upscope $end
$scope module add1 $end
$var wire 1 u$ a $end
$var wire 1 v$ b $end
$var wire 1 w$ cin $end
$var wire 1 x$ cout $end
$var wire 1 y$ sum $end
$upscope $end
$scope module add10 $end
$var wire 1 z$ a $end
$var wire 1 {$ b $end
$var wire 1 |$ cin $end
$var wire 1 }$ cout $end
$var wire 1 ~$ sum $end
$upscope $end
$scope module add11 $end
$var wire 1 !% a $end
$var wire 1 "% b $end
$var wire 1 #% cin $end
$var wire 1 $% cout $end
$var wire 1 %% sum $end
$upscope $end
$scope module add12 $end
$var wire 1 &% a $end
$var wire 1 '% b $end
$var wire 1 (% cin $end
$var wire 1 )% cout $end
$var wire 1 *% sum $end
$upscope $end
$scope module add13 $end
$var wire 1 +% a $end
$var wire 1 ,% b $end
$var wire 1 -% cin $end
$var wire 1 .% cout $end
$var wire 1 /% sum $end
$upscope $end
$scope module add14 $end
$var wire 1 0% a $end
$var wire 1 1% b $end
$var wire 1 2% cin $end
$var wire 1 3% cout $end
$var wire 1 4% sum $end
$upscope $end
$scope module add15 $end
$var wire 1 5% a $end
$var wire 1 6% b $end
$var wire 1 7% cin $end
$var wire 1 8% cout $end
$var wire 1 9% sum $end
$upscope $end
$scope module add16 $end
$var wire 1 :% a $end
$var wire 1 ;% b $end
$var wire 1 <% cin $end
$var wire 1 =% cout $end
$var wire 1 >% sum $end
$upscope $end
$scope module add17 $end
$var wire 1 ?% a $end
$var wire 1 @% b $end
$var wire 1 A% cin $end
$var wire 1 B% cout $end
$var wire 1 C% sum $end
$upscope $end
$scope module add18 $end
$var wire 1 D% a $end
$var wire 1 E% b $end
$var wire 1 F% cin $end
$var wire 1 G% cout $end
$var wire 1 H% sum $end
$upscope $end
$scope module add19 $end
$var wire 1 I% a $end
$var wire 1 J% b $end
$var wire 1 K% cin $end
$var wire 1 L% cout $end
$var wire 1 M% sum $end
$upscope $end
$scope module add2 $end
$var wire 1 N% a $end
$var wire 1 O% b $end
$var wire 1 P% cin $end
$var wire 1 Q% cout $end
$var wire 1 R% sum $end
$upscope $end
$scope module add20 $end
$var wire 1 S% a $end
$var wire 1 T% b $end
$var wire 1 U% cin $end
$var wire 1 V% cout $end
$var wire 1 W% sum $end
$upscope $end
$scope module add21 $end
$var wire 1 X% a $end
$var wire 1 Y% b $end
$var wire 1 Z% cin $end
$var wire 1 [% cout $end
$var wire 1 \% sum $end
$upscope $end
$scope module add22 $end
$var wire 1 ]% a $end
$var wire 1 ^% b $end
$var wire 1 _% cin $end
$var wire 1 `% cout $end
$var wire 1 a% sum $end
$upscope $end
$scope module add23 $end
$var wire 1 b% a $end
$var wire 1 c% b $end
$var wire 1 d% cin $end
$var wire 1 e% cout $end
$var wire 1 f% sum $end
$upscope $end
$scope module add24 $end
$var wire 1 g% a $end
$var wire 1 h% b $end
$var wire 1 i% cin $end
$var wire 1 j% cout $end
$var wire 1 k% sum $end
$upscope $end
$scope module add25 $end
$var wire 1 l% a $end
$var wire 1 m% b $end
$var wire 1 n% cin $end
$var wire 1 o% cout $end
$var wire 1 p% sum $end
$upscope $end
$scope module add26 $end
$var wire 1 q% a $end
$var wire 1 r% b $end
$var wire 1 s% cin $end
$var wire 1 t% cout $end
$var wire 1 u% sum $end
$upscope $end
$scope module add27 $end
$var wire 1 v% a $end
$var wire 1 w% b $end
$var wire 1 x% cin $end
$var wire 1 y% cout $end
$var wire 1 z% sum $end
$upscope $end
$scope module add28 $end
$var wire 1 {% a $end
$var wire 1 |% b $end
$var wire 1 }% cin $end
$var wire 1 ~% cout $end
$var wire 1 !& sum $end
$upscope $end
$scope module add29 $end
$var wire 1 "& a $end
$var wire 1 #& b $end
$var wire 1 $& cin $end
$var wire 1 %& cout $end
$var wire 1 && sum $end
$upscope $end
$scope module add3 $end
$var wire 1 '& a $end
$var wire 1 (& b $end
$var wire 1 )& cin $end
$var wire 1 *& cout $end
$var wire 1 +& sum $end
$upscope $end
$scope module add30 $end
$var wire 1 ,& a $end
$var wire 1 -& b $end
$var wire 1 .& cin $end
$var wire 1 /& cout $end
$var wire 1 0& sum $end
$upscope $end
$scope module add31 $end
$var wire 1 1& a $end
$var wire 1 2& b $end
$var wire 1 3& cin $end
$var wire 1 4& cout $end
$var wire 1 5& sum $end
$upscope $end
$scope module add4 $end
$var wire 1 6& a $end
$var wire 1 7& b $end
$var wire 1 8& cin $end
$var wire 1 9& cout $end
$var wire 1 :& sum $end
$upscope $end
$scope module add5 $end
$var wire 1 ;& a $end
$var wire 1 <& b $end
$var wire 1 =& cin $end
$var wire 1 >& cout $end
$var wire 1 ?& sum $end
$upscope $end
$scope module add6 $end
$var wire 1 @& a $end
$var wire 1 A& b $end
$var wire 1 B& cin $end
$var wire 1 C& cout $end
$var wire 1 D& sum $end
$upscope $end
$scope module add7 $end
$var wire 1 E& a $end
$var wire 1 F& b $end
$var wire 1 G& cin $end
$var wire 1 H& cout $end
$var wire 1 I& sum $end
$upscope $end
$scope module add8 $end
$var wire 1 J& a $end
$var wire 1 K& b $end
$var wire 1 L& cin $end
$var wire 1 M& cout $end
$var wire 1 N& sum $end
$upscope $end
$scope module add9 $end
$var wire 1 O& a $end
$var wire 1 P& b $end
$var wire 1 Q& cin $end
$var wire 1 R& cout $end
$var wire 1 S& sum $end
$upscope $end
$upscope $end
$upscope $end
$scope module Logic_part_ $end
$var wire 4 T& ALUop [3:0] $end
$var wire 32 U& a [31:0] $end
$var wire 32 V& b [31:0] $end
$var wire 32 W& xor_w [31:0] $end
$var wire 32 X& or_w [31:0] $end
$var wire 32 Y& and_w [31:0] $end
$var reg 32 Z& result [31:0] $end
$scope module and_32 $end
$var wire 32 [& a [31:0] $end
$var wire 32 \& b [31:0] $end
$var wire 32 ]& result [31:0] $end
$upscope $end
$scope module or_32 $end
$var wire 32 ^& a [31:0] $end
$var wire 32 _& b [31:0] $end
$var wire 32 `& result [31:0] $end
$upscope $end
$scope module xor_32 $end
$var wire 32 a& a [31:0] $end
$var wire 32 b& b [31:0] $end
$var wire 32 c& result [31:0] $end
$upscope $end
$upscope $end
$upscope $end
$upscope $end
$scope module nor_ $end
$var wire 32 d& a [31:0] $end
$var wire 32 e& b [31:0] $end
$var wire 32 f& result [31:0] $end
$upscope $end
$enddefinitions $end
#0
$dumpvars
bx f&
bz e&
bz d&
bx c&
bx b&
bx a&
bx `&
bx _&
bx ^&
b0x ]&
bx \&
bx [&
bx Z&
b0x Y&
bx X&
bx W&
bx V&
bx U&
bx T&
xS&
xR&
xQ&
xP&
xO&
xN&
xM&
xL&
xK&
xJ&
xI&
xH&
xG&
xF&
xE&
xD&
xC&
xB&
xA&
x@&
x?&
x>&
x=&
x<&
x;&
x:&
x9&
x8&
x7&
x6&
x5&
x4&
x3&
x2&
x1&
x0&
x/&
x.&
x-&
x,&
x+&
x*&
x)&
x(&
x'&
x&&
x%&
x$&
x#&
x"&
x!&
x~%
x}%
x|%
x{%
xz%
xy%
xx%
xw%
xv%
xu%
xt%
xs%
xr%
xq%
xp%
xo%
xn%
xm%
xl%
xk%
xj%
xi%
xh%
xg%
xf%
xe%
xd%
xc%
xb%
xa%
x`%
x_%
x^%
x]%
x\%
x[%
xZ%
xY%
xX%
xW%
xV%
xU%
xT%
xS%
xR%
xQ%
xP%
xO%
xN%
xM%
xL%
xK%
xJ%
xI%
xH%
xG%
xF%
xE%
xD%
xC%
xB%
xA%
x@%
x?%
x>%
x=%
x<%
x;%
x:%
x9%
x8%
x7%
x6%
x5%
x4%
x3%
x2%
x1%
x0%
x/%
x.%
x-%
x,%
x+%
x*%
x)%
x(%
x'%
x&%
x%%
x$%
x#%
x"%
x!%
x~$
x}$
x|$
x{$
xz$
xy$
xx$
xw$
xv$
xu$
xt$
xs$
xr$
xq$
bx p$
bx o$
1n$
bx m$
bx l$
xk$
bx j$
bx i$
bx h$
bx g$
bx f$
xe$
xd$
xc$
xb$
xa$
x`$
x_$
x^$
x]$
x\$
x[$
xZ$
xY$
xX$
xW$
xV$
xU$
xT$
xS$
xR$
xQ$
xP$
xO$
xN$
xM$
xL$
xK$
xJ$
xI$
xH$
xG$
xF$
xE$
xD$
xC$
xB$
xA$
x@$
x?$
x>$
x=$
x<$
x;$
x:$
x9$
x8$
x7$
x6$
x5$
x4$
x3$
x2$
x1$
x0$
x/$
x.$
x-$
x,$
x+$
x*$
x)$
x($
x'$
x&$
x%$
x$$
x#$
x"$
x!$
x~#
x}#
x|#
x{#
xz#
xy#
xx#
xw#
xv#
xu#
xt#
xs#
xr#
xq#
xp#
xo#
xn#
xm#
xl#
xk#
xj#
xi#
xh#
xg#
xf#
xe#
xd#
xc#
xb#
xa#
x`#
x_#
x^#
x]#
x\#
x[#
xZ#
xY#
xX#
xW#
xV#
xU#
xT#
xS#
xR#
xQ#
xP#
xO#
xN#
xM#
xL#
xK#
xJ#
xI#
xH#
xG#
xF#
xE#
xD#
xC#
xB#
xA#
x@#
x?#
x>#
x=#
x<#
x;#
x:#
x9#
x8#
x7#
x6#
x5#
x4#
x3#
x2#
x1#
x0#
x/#
x.#
x-#
x,#
x+#
x*#
x)#
x(#
x'#
x&#
x%#
bx $#
bx ##
bx "#
bx !#
x~"
x}"
x|"
x{"
xz"
xy"
xx"
xw"
xv"
xu"
xt"
xs"
xr"
xq"
xp"
xo"
xn"
xm"
xl"
xk"
xj"
xi"
xh"
xg"
xf"
xe"
xd"
xc"
xb"
xa"
x`"
x_"
x^"
x]"
x\"
x["
xZ"
xY"
xX"
xW"
xV"
xU"
xT"
xS"
xR"
xQ"
xP"
xO"
xN"
xM"
xL"
xK"
xJ"
xI"
xH"
xG"
xF"
xE"
xD"
xC"
xB"
xA"
x@"
x?"
x>"
x="
x<"
x;"
x:"
x9"
x8"
x7"
x6"
x5"
x4"
x3"
x2"
x1"
x0"
x/"
x."
x-"
x,"
x+"
x*"
x)"
x("
x'"
x&"
x%"
x$"
x#"
x""
x!"
x~
x}
x|
x{
xz
xy
xx
xw
xv
xu
xt
xs
xr
xq
xp
xo
xn
xm
xl
xk
xj
xi
xh
xg
xf
xe
xd
xc
xb
xa
x`
x_
x^
x]
x\
x[
xZ
xY
xX
xW
xV
xU
xT
xS
xR
xQ
xP
xO
xN
xM
xL
xK
xJ
xI
xH
xG
xF
xE
xD
xC
xB
xA
x@
x?
x>
bx =
bx <
bx ;
bx :
bx 9
x8
bx 7
bx 6
bx 5
bx 4
bx 3
bx 2
bx 1
bx 0
bx /
bx .
bx -
bx ,
bx +
b0 *
bx )
x(
b0 '
1&
bx %
bx $
bx #
x"
bx !
$end
#10
b1 *
0&
#20
1&
#30
b10 *
0&
#40
1&
#50
b11 *
0&
#60
1&
#70
b100 *
0&
#80
1&
#90
b101 *
0&
#100
1&
#110
b110 *
0&
#120
1&
#130
b111 *
0&
